# BEGIN PLOT
Legend=1
LogY=1
Title=Cross section as a function of $y$
XLabel=$y$
YLabel=$\mathrm{d}\sigma/\mathrm{d}y$(pb)
CustomLegend=Four-jets ($25 \leq \mathrm{M}_{4j} \leq 50$ GeV)
DrawOnly=/ZEUS_2007_I756660/d06-x01-y01 //home/narendran/Documents/CEDAR_stuff2/sorting-rivet-runs/R6/ZEUS_2007_direct_PhotonPDF_VariedR5_merged.yoda.gz/ZEUS_2007_I756660/d06-x01-y01
LegendOnly=/ZEUS_2007_I756660/d06-x01-y01 //home/narendran/Documents/CEDAR_stuff2/sorting-rivet-runs/R6/ZEUS_2007_direct_PhotonPDF_VariedR5_merged.yoda.gz/ZEUS_2007_I756660/d06-x01-y01
RatioPlot=1
RatioPlotReference=/ZEUS_2007_I756660/d06-x01-y01
# END PLOT

# BEGIN HISTO1D /ZEUS_2007_I756660/d06-x01-y01
ConnectBins=0
ErrorBars=1
IsRef=1
Path=/ZEUS_2007_I756660/d06-x01-y01
PolyMarker=*
Title=Data
# xlow	 xhigh	 val	 errminus	 errplus
2.000000e-01	2.720000e-01	9.000000e+01	2.655184e+01	3.130495e+01
2.720000e-01	3.440000e-01	1.130000e+02	2.315167e+01	2.947881e+01
3.440000e-01	4.170000e-01	1.540000e+02	3.797368e+01	4.062019e+01
4.170000e-01	4.890000e-01	1.710000e+02	3.745664e+01	4.487761e+01
4.890000e-01	5.610000e-01	1.860000e+02	4.385202e+01	4.023680e+01
5.610000e-01	6.330000e-01	2.100000e+02	4.769696e+01	4.945705e+01
6.330000e-01	7.060000e-01	2.150000e+02	5.072475e+01	5.244044e+01
7.060000e-01	7.780000e-01	2.180000e+02	5.047772e+01	5.001000e+01
7.780000e-01	8.500000e-01	2.460000e+02	6.783804e+01	6.420280e+01
# END HISTO1D


# BEGIN HISTO1D //home/narendran/Documents/CEDAR_stuff2/sorting-rivet-runs/R6/ZEUS_2007_direct_PhotonPDF_VariedR5_merged.yoda.gz/ZEUS_2007_I756660/d06-x01-y01[EXTRA__WeightNormalisation]
LineColor=red!30
LineStyle=solid
Path=//home/narendran/Documents/CEDAR_stuff2/sorting-rivet-runs/R6/ZEUS_2007_direct_PhotonPDF_VariedR5_merged.yoda.gz/ZEUS_2007_I756660/d06-x01-y01[EXTRA__WeightNormalisation]
ScaledBy=2.12365606074792305e-08
Title=ZEUS_2007_direct_PhotonPDF_VariedR5_merged
# xlow	 xhigh	 val	 errminus	 errplus
2.000000e-01	2.720000e-01	1.751574e+02	3.706672e+00	3.706672e+00
2.720000e-01	3.440000e-01	3.081139e+02	4.916155e+00	4.916155e+00
3.440000e-01	4.170000e-01	2.200285e+02	4.125857e+00	4.125857e+00
4.170000e-01	4.890000e-01	2.186133e+02	4.141029e+00	4.141029e+00
4.890000e-01	5.610000e-01	1.696665e+02	3.648111e+00	3.648111e+00
5.610000e-01	6.330000e-01	1.473111e+02	3.399285e+00	3.399285e+00
6.330000e-01	7.060000e-01	1.049855e+02	2.849964e+00	2.849964e+00
7.060000e-01	7.780000e-01	2.148482e+02	4.105214e+00	4.105214e+00
7.780000e-01	8.500000e-01	1.914731e+02	3.875463e+00	3.875463e+00
# END HISTO1D


# BEGIN HISTO1D //home/narendran/Documents/CEDAR_stuff2/sorting-rivet-runs/R6/ZEUS_2007_direct_PhotonPDF_VariedR5_merged.yoda.gz/ZEUS_2007_I756660/d06-x01-y01[EXTRA__NTrials]
LineColor=red!30
LineStyle=solid
Path=//home/narendran/Documents/CEDAR_stuff2/sorting-rivet-runs/R6/ZEUS_2007_direct_PhotonPDF_VariedR5_merged.yoda.gz/ZEUS_2007_I756660/d06-x01-y01[EXTRA__NTrials]
ScaledBy=2.12365463293521594e-08
Title=ZEUS_2007_direct_PhotonPDF_VariedR5_merged
# xlow	 xhigh	 val	 errminus	 errplus
2.000000e-01	2.720000e-01	2.068499e-03	5.652699e-05	5.652699e-05
2.720000e-01	3.440000e-01	3.644132e-03	7.509585e-05	7.509585e-05
3.440000e-01	4.170000e-01	2.638859e-03	6.415838e-05	6.415838e-05
4.170000e-01	4.890000e-01	2.580240e-03	6.427924e-05	6.427924e-05
4.890000e-01	5.610000e-01	2.062304e-03	5.736494e-05	5.736494e-05
5.610000e-01	6.330000e-01	1.767943e-03	5.263882e-05	5.263882e-05
6.330000e-01	7.060000e-01	1.237538e-03	4.329406e-05	4.329406e-05
7.060000e-01	7.780000e-01	2.578471e-03	6.359209e-05	6.359209e-05
7.780000e-01	8.500000e-01	2.277619e-03	5.975382e-05	5.975382e-05
# END HISTO1D


# BEGIN HISTO1D //home/narendran/Documents/CEDAR_stuff2/sorting-rivet-runs/R6/ZEUS_2007_direct_PhotonPDF_VariedR5_merged.yoda.gz/ZEUS_2007_I756660/d06-x01-y01[EXTRA__MEWeight]
LineColor=red!30
LineStyle=solid
Path=//home/narendran/Documents/CEDAR_stuff2/sorting-rivet-runs/R6/ZEUS_2007_direct_PhotonPDF_VariedR5_merged.yoda.gz/ZEUS_2007_I756660/d06-x01-y01[EXTRA__MEWeight]
ScaledBy=2.12438452621944018e-08
Title=ZEUS_2007_direct_PhotonPDF_VariedR5_merged
# xlow	 xhigh	 val	 errminus	 errplus
2.000000e-01	2.720000e-01	2.280826e+02	9.612388e+01	9.612388e+01
2.720000e-01	3.440000e-01	1.072638e+03	6.361442e+02	6.361442e+02
3.440000e-01	4.170000e-01	2.261016e+02	5.278303e+01	5.278303e+01
4.170000e-01	4.890000e-01	2.178353e+02	3.526757e+01	3.526757e+01
4.890000e-01	5.610000e-01	3.077328e+02	1.032167e+02	1.032167e+02
5.610000e-01	6.330000e-01	2.852311e+02	1.308152e+02	1.308152e+02
6.330000e-01	7.060000e-01	2.194941e+02	1.312968e+02	1.312968e+02
7.060000e-01	7.780000e-01	6.104681e+02	3.431509e+02	3.431509e+02
7.780000e-01	8.500000e-01	7.335703e+02	4.852101e+02	4.852101e+02
# END HISTO1D


# BEGIN HISTO1D //home/narendran/Documents/CEDAR_stuff2/sorting-rivet-runs/R6/ZEUS_2007_direct_PhotonPDF_VariedR5_merged.yoda.gz/ZEUS_2007_I756660/d06-x01-y01
LineColor=red
LineStyle=solid
Path=//home/narendran/Documents/CEDAR_stuff2/sorting-rivet-runs/R6/ZEUS_2007_direct_PhotonPDF_VariedR5_merged.yoda.gz/ZEUS_2007_I756660/d06-x01-y01
ScaledBy=2.12366222776990557e-08
Title=ZEUS_2007_direct_PhotonPDF_VariedR5_merged
# xlow	 xhigh	 val	 errminus	 errplus
2.000000e-01	2.720000e-01	2.046093e+01	1.324920e+00	1.324920e+00
2.720000e-01	3.440000e-01	2.388918e+01	1.405050e+00	1.405050e+00
3.440000e-01	4.170000e-01	2.406019e+01	1.448650e+00	1.448650e+00
4.170000e-01	4.890000e-01	2.167810e+01	1.395664e+00	1.395664e+00
4.890000e-01	5.610000e-01	2.205629e+01	1.463149e+00	1.463149e+00
5.610000e-01	6.330000e-01	1.964408e+01	1.338992e+00	1.338992e+00
6.330000e-01	7.060000e-01	1.829477e+01	1.334707e+00	1.334707e+00
7.060000e-01	7.780000e-01	1.656206e+01	1.258635e+00	1.258635e+00
7.780000e-01	8.500000e-01	1.544399e+01	1.231142e+00	1.231142e+00
# END HISTO1D

