# BEGIN PLOT
Legend=1
LogY=1
Title=Cross section as a function of $\eta^{\mathrm{jet3}}$
XLabel=$\eta^{\mathrm{jet3}}$
YLabel=$\mathrm{d}\sigma/\mathrm{d}\eta^{\mathrm{jet3}}$(pb)
CustomLegend=Four-jets ($25 \leq \mathrm{M}_{4j} \leq 50$ GeV)
DrawOnly=/ZEUS_2007_I756660/d19-x01-y01 //home/narendran/Documents/CEDAR_stuff2/sorting-rivet-runs/R6/ZEUS_2007_direct_PhotonPDF_VariedR5_merged.yoda.gz/ZEUS_2007_I756660/d19-x01-y01
LegendOnly=/ZEUS_2007_I756660/d19-x01-y01 //home/narendran/Documents/CEDAR_stuff2/sorting-rivet-runs/R6/ZEUS_2007_direct_PhotonPDF_VariedR5_merged.yoda.gz/ZEUS_2007_I756660/d19-x01-y01
RatioPlot=1
RatioPlotReference=/ZEUS_2007_I756660/d19-x01-y01
# END PLOT

# BEGIN HISTO1D /ZEUS_2007_I756660/d19-x01-y01
ConnectBins=0
ErrorBars=1
IsRef=1
Path=/ZEUS_2007_I756660/d19-x01-y01
PolyMarker=*
Title=Data
# xlow	 xhigh	 val	 errminus	 errplus
-1.371000e+00	-1.057000e+00	5.000000e-01	5.099020e-01	1.144552e+00
-1.057000e+00	-7.430000e-01	3.700000e+00	1.334166e+00	1.476482e+00
-7.430000e-01	-4.290000e-01	9.400000e+00	2.012461e+00	2.325941e+00
-4.290000e-01	-1.140000e-01	2.000000e+01	8.468766e+00	7.919596e+00
-1.140000e-01	2.000000e-01	2.620000e+01	5.732364e+00	5.360037e+00
2.000000e-01	5.140000e-01	3.720000e+01	7.940403e+00	9.200543e+00
5.140000e-01	8.290000e-01	4.570000e+01	9.820387e+00	9.016097e+00
8.290000e-01	1.143000e+00	4.780000e+01	1.027473e+01	9.960422e+00
1.143000e+00	1.457000e+00	3.780000e+01	8.432082e+00	1.102406e+01
1.457000e+00	1.771000e+00	4.000000e+01	1.025719e+01	1.126055e+01
1.771000e+00	2.086000e+00	5.100000e+01	1.256981e+01	1.363818e+01
2.086000e+00	2.400000e+00	6.100000e+01	2.310844e+01	2.071232e+01
# END HISTO1D


# BEGIN HISTO1D //home/narendran/Documents/CEDAR_stuff2/sorting-rivet-runs/R6/ZEUS_2007_direct_PhotonPDF_VariedR5_merged.yoda.gz/ZEUS_2007_I756660/d19-x01-y01[EXTRA__WeightNormalisation]
LineColor=red!30
LineStyle=solid
Path=//home/narendran/Documents/CEDAR_stuff2/sorting-rivet-runs/R6/ZEUS_2007_direct_PhotonPDF_VariedR5_merged.yoda.gz/ZEUS_2007_I756660/d19-x01-y01[EXTRA__WeightNormalisation]
ScaledBy=2.12365606074792305e-08
Title=ZEUS_2007_direct_PhotonPDF_VariedR5_merged
# xlow	 xhigh	 val	 errminus	 errplus
-1.371000e+00	-1.057000e+00	1.942524e+00	1.869195e-01	1.869195e-01
-1.057000e+00	-7.430000e-01	7.014669e+00	3.552016e-01	3.552016e-01
-7.430000e-01	-4.290000e-01	1.446101e+01	5.100005e-01	5.100005e-01
-4.290000e-01	-1.140000e-01	2.316457e+01	6.444555e-01	6.444555e-01
-1.140000e-01	2.000000e-01	3.316678e+01	7.723658e-01	7.723658e-01
2.000000e-01	5.140000e-01	4.151245e+01	8.640930e-01	8.640930e-01
5.140000e-01	8.290000e-01	4.889302e+01	9.362768e-01	9.362768e-01
8.290000e-01	1.143000e+00	5.453455e+01	9.903922e-01	9.903922e-01
1.143000e+00	1.457000e+00	5.543389e+01	9.985249e-01	9.985249e-01
1.457000e+00	1.771000e+00	5.102723e+01	9.580149e-01	9.580149e-01
1.771000e+00	2.086000e+00	4.182889e+01	8.660023e-01	8.660023e-01
2.086000e+00	2.400000e+00	2.892202e+01	7.212496e-01	7.212496e-01
# END HISTO1D


# BEGIN HISTO1D //home/narendran/Documents/CEDAR_stuff2/sorting-rivet-runs/R6/ZEUS_2007_direct_PhotonPDF_VariedR5_merged.yoda.gz/ZEUS_2007_I756660/d19-x01-y01[EXTRA__NTrials]
LineColor=red!30
LineStyle=solid
Path=//home/narendran/Documents/CEDAR_stuff2/sorting-rivet-runs/R6/ZEUS_2007_direct_PhotonPDF_VariedR5_merged.yoda.gz/ZEUS_2007_I756660/d19-x01-y01[EXTRA__NTrials]
ScaledBy=2.12365463293521594e-08
Title=ZEUS_2007_direct_PhotonPDF_VariedR5_merged
# xlow	 xhigh	 val	 errminus	 errplus
-1.371000e+00	-1.057000e+00	2.394184e-05	2.981964e-06	2.981964e-06
-1.057000e+00	-7.430000e-01	8.460803e-05	5.533877e-06	5.533877e-06
-7.430000e-01	-4.290000e-01	1.773996e-04	8.209738e-06	8.209738e-06
-4.290000e-01	-1.140000e-01	2.784347e-04	1.009059e-05	1.009059e-05
-1.140000e-01	2.000000e-01	3.936201e-04	1.182618e-05	1.182618e-05
2.000000e-01	5.140000e-01	4.907401e-04	1.306442e-05	1.306442e-05
5.140000e-01	8.290000e-01	5.725778e-04	1.423630e-05	1.423630e-05
8.290000e-01	1.143000e+00	6.467678e-04	1.534181e-05	1.534181e-05
1.143000e+00	1.457000e+00	6.688159e-04	1.547096e-05	1.547096e-05
1.457000e+00	1.771000e+00	5.981401e-04	1.448248e-05	1.448248e-05
1.771000e+00	2.086000e+00	5.132502e-04	1.386198e-05	1.386198e-05
2.086000e+00	2.400000e+00	3.410697e-04	1.107664e-05	1.107664e-05
# END HISTO1D


# BEGIN HISTO1D //home/narendran/Documents/CEDAR_stuff2/sorting-rivet-runs/R6/ZEUS_2007_direct_PhotonPDF_VariedR5_merged.yoda.gz/ZEUS_2007_I756660/d19-x01-y01[EXTRA__MEWeight]
LineColor=red!30
LineStyle=solid
Path=//home/narendran/Documents/CEDAR_stuff2/sorting-rivet-runs/R6/ZEUS_2007_direct_PhotonPDF_VariedR5_merged.yoda.gz/ZEUS_2007_I756660/d19-x01-y01[EXTRA__MEWeight]
ScaledBy=2.12438452621944018e-08
Title=ZEUS_2007_direct_PhotonPDF_VariedR5_merged
# xlow	 xhigh	 val	 errminus	 errplus
-1.371000e+00	-1.057000e+00	1.832736e+00	9.083246e-01	9.083246e-01
-1.057000e+00	-7.430000e-01	7.202089e+00	2.631956e+00	2.631956e+00
-7.430000e-01	-4.290000e-01	1.139882e+01	4.444880e+00	4.444880e+00
-4.290000e-01	-1.140000e-01	1.731877e+01	2.922508e+00	2.922508e+00
-1.140000e-01	2.000000e-01	1.749706e+01	3.576858e+00	3.576858e+00
2.000000e-01	5.140000e-01	1.207166e+02	4.346470e+01	4.346470e+01
5.140000e-01	8.290000e-01	3.106001e+01	5.692013e+00	5.692013e+00
8.290000e-01	1.143000e+00	2.610728e+02	1.468862e+02	1.468862e+02
1.143000e+00	1.457000e+00	8.628436e+01	3.000427e+01	3.000427e+01
1.457000e+00	1.771000e+00	7.471318e+01	1.963840e+01	1.963840e+01
1.771000e+00	2.086000e+00	2.427333e+02	1.340584e+02	1.340584e+02
2.086000e+00	2.400000e+00	2.319430e+01	4.680213e+00	4.680213e+00
# END HISTO1D


# BEGIN HISTO1D //home/narendran/Documents/CEDAR_stuff2/sorting-rivet-runs/R6/ZEUS_2007_direct_PhotonPDF_VariedR5_merged.yoda.gz/ZEUS_2007_I756660/d19-x01-y01
LineColor=red
LineStyle=solid
Path=//home/narendran/Documents/CEDAR_stuff2/sorting-rivet-runs/R6/ZEUS_2007_direct_PhotonPDF_VariedR5_merged.yoda.gz/ZEUS_2007_I756660/d19-x01-y01
ScaledBy=2.12366222776990557e-08
Title=ZEUS_2007_direct_PhotonPDF_VariedR5_merged
# xlow	 xhigh	 val	 errminus	 errplus
-1.371000e+00	-1.057000e+00	6.595264e-01	1.302099e-01	1.302099e-01
-1.057000e+00	-7.430000e-01	1.004688e+00	1.369962e-01	1.369962e-01
-7.430000e-01	-4.290000e-01	2.341757e+00	2.313538e-01	2.313538e-01
-4.290000e-01	-1.140000e-01	3.432270e+00	2.836994e-01	2.836994e-01
-1.140000e-01	2.000000e-01	4.189041e+00	2.947532e-01	2.947532e-01
2.000000e-01	5.140000e-01	4.611701e+00	3.065974e-01	3.065974e-01
5.140000e-01	8.290000e-01	4.701562e+00	2.997178e-01	2.997178e-01
8.290000e-01	1.143000e+00	5.386274e+00	3.296301e-01	3.296301e-01
1.143000e+00	1.457000e+00	5.075567e+00	3.308310e-01	3.308310e-01
1.457000e+00	1.771000e+00	4.259631e+00	2.852134e-01	2.852134e-01
1.771000e+00	2.086000e+00	3.838165e+00	2.956395e-01	2.956395e-01
2.086000e+00	2.400000e+00	2.245498e+00	2.144248e-01	2.144248e-01
# END HISTO1D

