# BEGIN PLOT
Legend=1
LogY=1
Title=
XLabel=$E_T$ [GeV]
YLabel=$\mathrm{d}\sigma / \mathrm{d}E_T$ [pb/GeV]
CustomLegend=$-1 > \eta > 2,$ anti-$k_T$ alg 
LegendXPos=0.4
DrawOnly=/ZEUS_2012_I1116258/d09-x01-y01 //home/narendran/Documents/CEDAR_stuff2/sorting-rivet-runs/tunes/ipolhistos.yoda/ZEUS_2012_I1116258/d09-x01-y01
LegendOnly=/ZEUS_2012_I1116258/d09-x01-y01 //home/narendran/Documents/CEDAR_stuff2/sorting-rivet-runs/tunes/ipolhistos.yoda/ZEUS_2012_I1116258/d09-x01-y01
RatioPlot=1
RatioPlotReference=/ZEUS_2012_I1116258/d09-x01-y01
# END PLOT

# BEGIN HISTO1D /ZEUS_2012_I1116258/d09-x01-y01
ConnectBins=0
ErrorBars=1
IsRef=1
Path=/ZEUS_2012_I1116258/d09-x01-y01
PolyMarker=*
Title=Data
# xlow	 xhigh	 val	 errminus	 errplus
1.700000e+01	2.100000e+01	2.768400e+02	1.300442e+01	1.241131e+01
2.100000e+01	2.500000e+01	8.951000e+01	4.515628e+00	4.262499e+00
2.500000e+01	2.900000e+01	3.454000e+01	1.835783e+00	1.759233e+00
2.900000e+01	3.500000e+01	1.277100e+01	7.395789e-01	6.710298e-01
3.500000e+01	4.100000e+01	4.218000e+00	2.632907e-01	2.569611e-01
4.100000e+01	4.700000e+01	1.567000e+00	1.095856e-01	1.028251e-01
4.700000e+01	5.500000e+01	5.500000e-01	4.619524e-02	4.451966e-02
5.500000e+01	7.100000e+01	1.139000e-01	1.052663e-02	1.017890e-02
7.100000e+01	9.500000e+01	1.050000e-02	1.857418e-03	1.769181e-03
# END HISTO1D


# BEGIN HISTO1D //home/narendran/Documents/CEDAR_stuff2/sorting-rivet-runs/tunes/ipolhistos.yoda/ZEUS_2012_I1116258/d09-x01-y01[EXTRA__WeightNormalisation]
ErrorBreakdown={0: {"": {up: 0.18906400000000001, dn: 0.18906400000000001}}, 1: {"": {up: 0.154474, dn: 0.154474}}, 2: {"": {up: 0.115804, dn: 0.115804}}, 3: {"": {up: 0.063582, dn: 0.063582}}, 4: {"": {up: 0.039361800000000002, dn: 0.039361800000000002}}, 5: {"": {up: 0.0259484, dn: 0.0259484}}, 6: {"": {up: 0.0151866, dn: 0.0151866}}, 7: {"": {up: 0.0065649799999999998, dn: 0.0065649799999999998}}, 8: {"": {up: 0.0026170899999999999, dn: 0.0026170899999999999}}}
LineColor=red!30
LineStyle=solid
Path=//home/narendran/Documents/CEDAR_stuff2/sorting-rivet-runs/tunes/ipolhistos.yoda/ZEUS_2012_I1116258/d09-x01-y01[EXTRA__WeightNormalisation]
Title=ipolhistos
# xlow	 xhigh	 val	 errminus	 errplus
1.700000e+01	2.100000e+01	4.681410e+02	1.890640e-01	1.890640e-01
2.100000e+01	2.500000e+01	3.125130e+02	1.544740e-01	1.544740e-01
2.500000e+01	2.900000e+01	1.756320e+02	1.158040e-01	1.158040e-01
2.900000e+01	3.500000e+01	7.941790e+01	6.358200e-02	6.358200e-02
3.500000e+01	4.100000e+01	3.043680e+01	3.936180e-02	3.936180e-02
4.100000e+01	4.700000e+01	1.322730e+01	2.594840e-02	2.594840e-02
4.700000e+01	5.500000e+01	6.040990e+00	1.518660e-02	1.518660e-02
5.500000e+01	7.100000e+01	2.257800e+00	6.564980e-03	6.564980e-03
7.100000e+01	9.500000e+01	5.382060e-01	2.617090e-03	2.617090e-03
# END HISTO1D


# BEGIN HISTO1D //home/narendran/Documents/CEDAR_stuff2/sorting-rivet-runs/tunes/ipolhistos.yoda/ZEUS_2012_I1116258/d09-x01-y01[EXTRA__NTrials]
ErrorBreakdown={0: {"": {up: 5.3066999999999999e-05, dn: 5.3066999999999999e-05}}, 1: {"": {up: 4.3351900000000001e-05, dn: 4.3351900000000001e-05}}, 2: {"": {up: 3.2494399999999998e-05, dn: 3.2494399999999998e-05}}, 3: {"": {up: 1.7782799999999999e-05, dn: 1.7782799999999999e-05}}, 4: {"": {up: 1.1085400000000001e-05, dn: 1.1085400000000001e-05}}, 5: {"": {up: 7.2667799999999999e-06, dn: 7.2667799999999999e-06}}, 6: {"": {up: 4.2589099999999999e-06, dn: 4.2589099999999999e-06}}, 7: {"": {up: 1.8334999999999999e-06, dn: 1.8334999999999999e-06}}, 8: {"": {up: 7.3580500000000004e-07, dn: 7.3580500000000004e-07}}}
LineColor=red!30
LineStyle=solid
Path=//home/narendran/Documents/CEDAR_stuff2/sorting-rivet-runs/tunes/ipolhistos.yoda/ZEUS_2012_I1116258/d09-x01-y01[EXTRA__NTrials]
Title=ipolhistos
# xlow	 xhigh	 val	 errminus	 errplus
1.700000e+01	2.100000e+01	1.021880e-01	5.306700e-05	5.306700e-05
2.100000e+01	2.500000e+01	6.821810e-02	4.335190e-05	4.335190e-05
2.500000e+01	2.900000e+01	3.833160e-02	3.249440e-05	3.249440e-05
2.900000e+01	3.500000e+01	1.727970e-02	1.778280e-05	1.778280e-05
3.500000e+01	4.100000e+01	6.654680e-03	1.108540e-05	1.108540e-05
4.100000e+01	4.700000e+01	2.881160e-03	7.266780e-06	7.266780e-06
4.700000e+01	5.500000e+01	1.317150e-03	4.258910e-06	4.258910e-06
5.500000e+01	7.100000e+01	4.910560e-04	1.833500e-06	1.833500e-06
7.100000e+01	9.500000e+01	1.174940e-04	7.358050e-07	7.358050e-07
# END HISTO1D


# BEGIN HISTO1D //home/narendran/Documents/CEDAR_stuff2/sorting-rivet-runs/tunes/ipolhistos.yoda/ZEUS_2012_I1116258/d09-x01-y01[EXTRA__MEWeight]
ErrorBreakdown={0: {"": {up: 2691.9099999999999, dn: 2691.9099999999999}}, 1: {"": {up: 989.79200000000003, dn: 989.79200000000003}}, 2: {"": {up: 480.726, dn: 480.726}}, 3: {"": {up: 109.628, dn: 109.628}}, 4: {"": {up: 65.196799999999996, dn: 65.196799999999996}}, 5: {"": {up: 10.3392, dn: 10.3392}}, 6: {"": {up: 4.3942399999999999, dn: 4.3942399999999999}}, 7: {"": {up: 1.0025999999999999, dn: 1.0025999999999999}}, 8: {"": {up: 0.10136000000000001, dn: 0.10136000000000001}}}
LineColor=red!30
LineStyle=solid
Path=//home/narendran/Documents/CEDAR_stuff2/sorting-rivet-runs/tunes/ipolhistos.yoda/ZEUS_2012_I1116258/d09-x01-y01[EXTRA__MEWeight]
Title=ipolhistos
# xlow	 xhigh	 val	 errminus	 errplus
1.700000e+01	2.100000e+01	3.672160e+04	2.691910e+03	2.691910e+03
2.100000e+01	2.500000e+01	1.863670e+04	9.897920e+02	9.897920e+02
2.500000e+01	2.900000e+01	7.470290e+03	4.807260e+02	4.807260e+02
2.900000e+01	3.500000e+01	2.088350e+03	1.096280e+02	1.096280e+02
3.500000e+01	4.100000e+01	5.729840e+02	6.519680e+01	6.519680e+01
4.100000e+01	4.700000e+01	1.351220e+02	1.033920e+01	1.033920e+01
4.700000e+01	5.500000e+01	4.103580e+01	4.394240e+00	4.394240e+00
5.500000e+01	7.100000e+01	9.706640e+00	1.002600e+00	1.002600e+00
7.100000e+01	9.500000e+01	9.711950e-01	1.013600e-01	1.013600e-01
# END HISTO1D


# BEGIN HISTO1D //home/narendran/Documents/CEDAR_stuff2/sorting-rivet-runs/tunes/ipolhistos.yoda/ZEUS_2012_I1116258/d09-x01-y01
ErrorBreakdown={0: {"": {up: 5.3090999999999999, dn: 5.3090999999999999}}, 1: {"": {up: 2.8858000000000001, dn: 2.8858000000000001}}, 2: {"": {up: 1.87462, dn: 1.87462}}, 3: {"": {up: 0.61158800000000002, dn: 0.61158800000000002}}, 4: {"": {up: 0.28731600000000002, dn: 0.28731600000000002}}, 5: {"": {up: 0.114207, dn: 0.114207}}, 6: {"": {up: 0.0981929, dn: 0.0981929}}, 7: {"": {up: 0.0054221, dn: 0.0054221}}, 8: {"": {up: 0.00048875399999999999, dn: 0.00048875399999999999}}}
LineColor=red
LineStyle=solid
Path=//home/narendran/Documents/CEDAR_stuff2/sorting-rivet-runs/tunes/ipolhistos.yoda/ZEUS_2012_I1116258/d09-x01-y01
Title=ipolhistos
# xlow	 xhigh	 val	 errminus	 errplus
1.700000e+01	2.100000e+01	2.305761e+02	5.309100e+00	5.309100e+00
2.100000e+01	2.500000e+01	8.580565e+01	2.885800e+00	2.885800e+00
2.500000e+01	2.900000e+01	3.575942e+01	1.874620e+00	1.874620e+00
2.900000e+01	3.500000e+01	1.217449e+01	6.115880e-01	6.115880e-01
3.500000e+01	4.100000e+01	4.105581e+00	2.873160e-01	2.873160e-01
4.100000e+01	4.700000e+01	1.402791e+00	1.142070e-01	1.142070e-01
4.700000e+01	5.500000e+01	5.210173e-01	9.819290e-02	9.819290e-02
5.500000e+01	7.100000e+01	8.279777e-02	5.422100e-03	5.422100e-03
7.100000e+01	9.500000e+01	5.381407e-03	4.887540e-04	4.887540e-04
# END HISTO1D

