# BEGIN PLOT
Legend=1
LogY=1
Title=Cross section as a function of $\mathrm{E}_{\mathrm{T}}^{\mathrm{jet1}}$
XLabel=$\mathrm{E}_{\mathrm{T}}^{\mathrm{jet1}}$ (GeV)
YLabel=$\mathrm{d}\sigma/\mathrm{d}\mathrm{E}_{\mathrm{T}}^{\mathrm{jet1}}$(pb/GeV)
CustomLegend=Four-jets ($\mathrm{M}_{4j} \geq 50$ GeV)
DrawOnly=/ZEUS_2007_I756660/d10-x01-y02 //home/narendran/Documents/CEDAR_stuff2/sorting-rivet-runs/R5_Q2_2_300PDFs/prof_parameters_all/0000/Analysis_ZEUS2007_.yoda/ZEUS_2007_I756660/d10-x01-y02
LegendOnly=/ZEUS_2007_I756660/d10-x01-y02 //home/narendran/Documents/CEDAR_stuff2/sorting-rivet-runs/R5_Q2_2_300PDFs/prof_parameters_all/0000/Analysis_ZEUS2007_.yoda/ZEUS_2007_I756660/d10-x01-y02
RatioPlot=1
RatioPlotReference=/ZEUS_2007_I756660/d10-x01-y02
# END PLOT

# BEGIN HISTO1D /ZEUS_2007_I756660/d10-x01-y02
ConnectBins=0
ErrorBars=1
IsRef=1
Path=/ZEUS_2007_I756660/d10-x01-y02
PolyMarker=*
Title=Data
# xlow	 xhigh	 val	 errminus	 errplus
6.000000e+00	8.500000e+00	1.000000e+00	5.873670e-01	5.223983e-01
8.500000e+00	1.120000e+01	6.100000e+00	1.933908e+00	2.022375e+00
1.120000e+01	1.420000e+01	8.300000e+00	1.791647e+00	1.791647e+00
1.420000e+01	1.760000e+01	6.460000e+00	1.114316e+00	1.196746e+00
1.760000e+01	2.150000e+01	3.930000e+00	6.932532e-01	7.624959e-01
2.150000e+01	2.600000e+01	1.930000e+00	3.973663e-01	4.448595e-01
2.600000e+01	3.120000e+01	7.400000e-01	1.711724e-01	1.711724e-01
3.120000e+01	3.700000e+01	2.890000e-01	7.608548e-02	7.085901e-02
3.700000e+01	4.390000e+01	1.000000e-01	3.354102e-02	3.714835e-02
4.390000e+01	5.180000e+01	1.600000e-02	1.236932e-02	1.791647e-02
5.180000e+01	6.080000e+01	2.200000e-03	2.792848e-03	4.354308e-03
# END HISTO1D


# BEGIN HISTO1D //home/narendran/Documents/CEDAR_stuff2/sorting-rivet-runs/R5_Q2_2_300PDFs/prof_parameters_all/0000/Analysis_ZEUS2007_.yoda/ZEUS_2007_I756660/d10-x01-y02[EXTRA__WeightNormalisation]
LineColor=red!30
LineStyle=solid
Path=//home/narendran/Documents/CEDAR_stuff2/sorting-rivet-runs/R5_Q2_2_300PDFs/prof_parameters_all/0000/Analysis_ZEUS2007_.yoda/ZEUS_2007_I756660/d10-x01-y02[EXTRA__WeightNormalisation]
ScaledBy=3.18757085642884710e-07
Title=Analysis_ZEUS2007_
# xlow	 xhigh	 val	 errminus	 errplus
6.000000e+00	8.500000e+00	4.747184e-01	1.268738e-01	1.268738e-01
8.500000e+00	1.120000e+01	6.844481e+00	4.635669e-01	4.635669e-01
1.120000e+01	1.420000e+01	3.472790e+01	9.906097e-01	9.906097e-01
1.420000e+01	1.760000e+01	7.315250e+01	1.350514e+00	1.350514e+00
1.760000e+01	2.150000e+01	8.457549e+01	1.355857e+00	1.355857e+00
2.150000e+01	2.600000e+01	6.348416e+01	1.093579e+00	1.093579e+00
2.600000e+01	3.120000e+01	3.674502e+01	7.739652e-01	7.739652e-01
3.120000e+01	3.700000e+01	1.870810e+01	5.229075e-01	5.229075e-01
3.700000e+01	4.390000e+01	8.870252e+00	3.301166e-01	3.301166e-01
4.390000e+01	5.180000e+01	3.702030e+00	1.993106e-01	1.993106e-01
5.180000e+01	6.080000e+01	1.139701e+00	1.036091e-01	1.036091e-01
# END HISTO1D


# BEGIN HISTO1D //home/narendran/Documents/CEDAR_stuff2/sorting-rivet-runs/R5_Q2_2_300PDFs/prof_parameters_all/0000/Analysis_ZEUS2007_.yoda/ZEUS_2007_I756660/d10-x01-y02[EXTRA__NTrials]
LineColor=red!30
LineStyle=solid
Path=//home/narendran/Documents/CEDAR_stuff2/sorting-rivet-runs/R5_Q2_2_300PDFs/prof_parameters_all/0000/Analysis_ZEUS2007_.yoda/ZEUS_2007_I756660/d10-x01-y02[EXTRA__NTrials]
ScaledBy=3.18757102306685748e-07
Title=Analysis_ZEUS2007_
# xlow	 xhigh	 val	 errminus	 errplus
6.000000e+00	8.500000e+00	5.865132e-06	1.847692e-06	1.847692e-06
8.500000e+00	1.120000e+01	7.957122e-05	7.122735e-06	7.122735e-06
1.120000e+01	1.420000e+01	4.199093e-04	1.564690e-05	1.564690e-05
1.420000e+01	1.760000e+01	8.812697e-04	2.087832e-05	2.087832e-05
1.760000e+01	2.150000e+01	1.020431e-03	2.119145e-05	2.119145e-05
2.150000e+01	2.600000e+01	7.475209e-04	1.675347e-05	1.675347e-05
2.600000e+01	3.120000e+01	4.408656e-04	1.199403e-05	1.199403e-05
3.120000e+01	3.700000e+01	2.258779e-04	8.152347e-06	8.152347e-06
3.700000e+01	4.390000e+01	1.047741e-04	5.100498e-06	5.100498e-06
4.390000e+01	5.180000e+01	4.317343e-05	3.023753e-06	3.023753e-06
5.180000e+01	6.080000e+01	1.498159e-05	1.750569e-06	1.750569e-06
# END HISTO1D


# BEGIN HISTO1D //home/narendran/Documents/CEDAR_stuff2/sorting-rivet-runs/R5_Q2_2_300PDFs/prof_parameters_all/0000/Analysis_ZEUS2007_.yoda/ZEUS_2007_I756660/d10-x01-y02[EXTRA__MEWeight]
LineColor=red!30
LineStyle=solid
Path=//home/narendran/Documents/CEDAR_stuff2/sorting-rivet-runs/R5_Q2_2_300PDFs/prof_parameters_all/0000/Analysis_ZEUS2007_.yoda/ZEUS_2007_I756660/d10-x01-y02[EXTRA__MEWeight]
ScaledBy=3.18757021865356834e-07
Title=Analysis_ZEUS2007_
# xlow	 xhigh	 val	 errminus	 errplus
6.000000e+00	8.500000e+00	2.031110e-02	1.974811e-02	1.974811e-02
8.500000e+00	1.120000e+01	1.712691e+00	6.835079e-01	6.835079e-01
1.120000e+01	1.420000e+01	2.495960e+01	5.503364e+00	5.503364e+00
1.420000e+01	1.760000e+01	1.671349e+02	5.854956e+01	5.854956e+01
1.760000e+01	2.150000e+01	1.696081e+02	5.330453e+01	5.330453e+01
2.150000e+01	2.600000e+01	5.526538e+01	1.626421e+01	1.626421e+01
2.600000e+01	3.120000e+01	1.332910e+01	2.120649e+00	2.120649e+00
3.120000e+01	3.700000e+01	3.690990e+00	1.030258e+00	1.030258e+00
3.700000e+01	4.390000e+01	5.677571e+00	4.225687e+00	4.225687e+00
4.390000e+01	5.180000e+01	1.754518e+00	1.305271e+00	1.305271e+00
5.180000e+01	6.080000e+01	3.405967e-02	1.644491e-02	1.644491e-02
# END HISTO1D


# BEGIN HISTO1D //home/narendran/Documents/CEDAR_stuff2/sorting-rivet-runs/R5_Q2_2_300PDFs/prof_parameters_all/0000/Analysis_ZEUS2007_.yoda/ZEUS_2007_I756660/d10-x01-y02
LineColor=red
LineStyle=solid
Path=//home/narendran/Documents/CEDAR_stuff2/sorting-rivet-runs/R5_Q2_2_300PDFs/prof_parameters_all/0000/Analysis_ZEUS2007_.yoda/ZEUS_2007_I756660/d10-x01-y02
ScaledBy=5.59866024048669057e-07
Title=Analysis_ZEUS2007_
# xlow	 xhigh	 val	 errminus	 errplus
6.000000e+00	8.500000e+00	3.989702e+01	2.818121e+01	2.818121e+01
8.500000e+00	1.120000e+01	1.393794e+02	5.265411e+01	5.265411e+01
1.120000e+01	1.420000e+01	4.309770e+02	1.768388e+02	1.768388e+02
1.420000e+01	1.760000e+01	1.120101e+03	5.853083e+02	5.853083e+02
1.760000e+01	2.150000e+01	9.607879e+01	2.062111e+01	2.062111e+01
2.150000e+01	2.600000e+01	3.794627e+01	1.050682e+01	1.050682e+01
2.600000e+01	3.120000e+01	1.019862e+01	3.122113e+00	3.122113e+00
3.120000e+01	3.700000e+01	1.844488e+00	1.151178e+00	1.151178e+00
3.700000e+01	4.390000e+01	1.268812e+00	6.833852e-01	6.833852e-01
4.390000e+01	5.180000e+01	5.125584e-02	2.429433e-02	2.429433e-02
5.180000e+01	6.080000e+01	1.374737e-03	7.867614e-04	7.867614e-04
# END HISTO1D

